…
**NOTE:** - Most of the plots won’t be done for max range of values
because they might heavily skew the plots - See [detailed visualization
file called exploration\_workspace.R in our
repo](exploration_workspace.R) for all the various trends.  
We picked couple important ones for this document.  
DO NOT CLICK THE LINK FROM HTML AFTER KNITTING, THE LINK ONLY WORKS FOR
README.md ON GITHUB

    ## # A tibble: 6,935 × 1
    ##    Bedrooms
    ##       <dbl>
    ##  1        2
    ##  2        1
    ##  3        3
    ##  4        4
    ##  5       NA
    ##  6        4
    ##  7        5
    ##  8        1
    ##  9        3
    ## 10        4
    ## # ℹ 6,925 more rows
…
